{
  "type": "service_account",
  "project_id": "clickandcollab-d6759",
  "private_key_id": "97534fb6a3e23ea3db696430f1f2e6c16b7f62f5",
  "private_key": "-----BEGIN PRIVATE KEY-----\nMIIEvQIBADANBgkqhkiG9w0BAQEFAASCBKcwggSjAgEAAoIBAQDB2D1v8rpiTGRR\n4PEy6fcLgzRJBu6TGf+iwoUc9ed4e8LUq6SF0TjlfH+8LMRrAM/ZtcSPpUn0FwFp\nviscMMFDUhVCAKNbwbgNsxYpshgbREwUttzUxQdSwNmJ+4YGYqyS+EVxUyz6pVPn\nAI8I17uqGCxHmzt0oJ+y9g/nSl3KTNo9XB8P99nVB6kWwq6yTFRob7qo90loOqpO\nxXD+Ni/nyjccC3ly3/vHUl7jmGOlm884U0acZGoynMqZ30EZWrYjCG4A/3zWXstQ\nqJ5zE7B2q++vb0cKiGWSYxAPUYjZHjxrtWR2LcE3rkhbVbDLICx6IoLwU0CI9oBd\nRSO6q+spAgMBAAECggEACE82CFUmBY4IxDRu985tDKKfMdIzlT1eu/disA8f0QZd\nH7NhO2tF6RshI/aMpO7v+gEqCo5R++il4tvdX+P8ejT2kacSrvLq6jYXE8p9Rg3z\nb5/hxNfSrIrKcyPDvFpWfiZZCQvruFgwnze4P0TK1/ZupNMpWqKCtgUzlqfqxVUw\nLrlDjwcLMM6RZeIqjjG56V38vibddu2f+IouN02Yu6q9MfsZgi4eq5pwK2eT8y3z\nF8WtWzpEjdEa4wevOFQa3eOjo/d3pAPns4q20Q28rLlrAqQ8QcxbH247uFRVzdqG\nfUbLRkcGYb/ur+kyO2H+fopfjMveQkQaVntgFpdhkQKBgQD2M1G1OGBCO73s7hz5\ny79Qo2o52eYb6hIqTbx4IGtTBbV5b0XQLrBxZD8Icpmh8mFudc/Jy3Dw6kdSi0IY\na5gSMkkoQuYuJnvNFjZPHNvLVeKzr7nLq/m/vRKsfDlTpm5XHZ03/jwhkvEJWlTZ\noKjlS+RLfhaYAU87P2AgQnzwIwKBgQDJj2/mmIolhix+4bssDxso6N+GQ3/mIWpU\n6tj4uy6cX4RSFP32TVUBqg1Ii0MZK/J8bSaPFIoIKJe+ZKT5DLaQUZjcURLIO+VT\n0IWI8ucPyw8+DxYssfjBMK4Fa/dzkifn/wCsjZqw8of9SW2CTmjFII5WYgJNkzlB\n9xn/CarGQwKBgFqgMWd/xQ8cZqEcVVYuBdJtFOEOsIF9/AnOa53ccSUyaMa2iwBC\n73gN6pX1eU//pJXAkCg71usXkgF0eXP7xxKLqBpF5ez/BXtMvdkJSm7iwnxaJw4t\n09UciA8t+vwru1od8I137DJ/oHJM6gbh+MnO0c5oL3Dsqnmorn2xe8P5AoGACBOJ\nRlIiZvKDYeoll9RbID6Ehlq6CzyXiCOI4h6N9ZIWOTvCGVZr648mzRtXavDJ3JZ7\nDwyho0YNHoHl4lzSC+JZH6rX99H+lGcskpo5C/b0+2WbW9sdvo/2yRzUY3sdwjwD\niOZ7pk9xh4Kjsq71n8B4M5nlwbn+d1gxYHjAsQUCgYEAifrVZ0LyW/eNRRbDtTFU\ndEpbW+YIm9vhaWmCj+AQic8l09aOK9TCVSbDf2s1gn+viWNKn6ZA9VSHwR+sZtMj\nFirtqSQZ1Qhy4V3ZtK0jhqvl0Sl0EmqOUp0liv0BTUmHqa6OH2iMNX/obhOuG9DR\nD6eZ4hDCJbfENfzxJHa3dEk=\n-----END PRIVATE KEY-----\n",
  "client_email": "firebase-adminsdk-47m6g@clickandcollab-d6759.iam.gserviceaccount.com",
  "client_id": "116578200515002398516",
  "auth_uri": "https://accounts.google.com/o/oauth2/auth",
  "token_uri": "https://oauth2.googleapis.com/token",
  "auth_provider_x509_cert_url": "https://www.googleapis.com/oauth2/v1/certs",
  "client_x509_cert_url": "https://www.googleapis.com/robot/v1/metadata/x509/firebase-adminsdk-47m6g%40clickandcollab-d6759.iam.gserviceaccount.com",
  "universe_domain": "googleapis.com"
}
